EESchema Schematic File Version 4
EELAYER 30 0
EELAYER END
$Descr A4 11693 8268
encoding utf-8
Sheet 1 1
Title ""
Date ""
Rev ""
Comp ""
Comment1 ""
Comment2 ""
Comment3 ""
Comment4 ""
$EndDescr
$Comp
L MCU_Microchip_ATtiny:ATtiny402-SS U2
U 1 1 62B07F7C
P 5675 4175
F 0 "U2" H 5146 4221 50  0000 R CNN
F 1 "ATtiny402-SS" H 5146 4130 50  0000 R CNN
F 2 "Package_SO:SOIC-8_3.9x4.9mm_P1.27mm" H 5675 4175 50  0001 C CIN
F 3 "http://ww1.microchip.com/downloads/en/DeviceDoc/ATtiny202-402-AVR-MCU-with-Core-Independent-Peripherals_and-picoPower-40001969A.pdf" H 5675 4175 50  0001 C CNN
	1    5675 4175
	1    0    0    -1  
$EndComp
$Comp
L Device:R_Small R4
U 1 1 62B0893D
P 6525 3875
F 0 "R4" V 6329 3875 50  0000 C CNN
F 1 "470" V 6420 3875 50  0000 C CNN
F 2 "Resistor_SMD:R_0805_2012Metric_Pad1.20x1.40mm_HandSolder" H 6525 3875 50  0001 C CNN
F 3 "~" H 6525 3875 50  0001 C CNN
	1    6525 3875
	0    1    1    0   
$EndComp
$Comp
L Connector_Generic:Conn_01x03 J17
U 1 1 62B099FD
P 6925 3875
F 0 "J17" H 7005 3917 50  0000 L CNN
F 1 "UPDI" H 7005 3826 50  0000 L CNN
F 2 "Connector:FanPinHeader_1x03_P2.54mm_Vertical" H 6925 3875 50  0001 C CNN
F 3 "~" H 6925 3875 50  0001 C CNN
	1    6925 3875
	1    0    0    -1  
$EndComp
Wire Wire Line
	6725 3875 6625 3875
Wire Wire Line
	6425 3875 6275 3875
$Comp
L power:GND #PWR06
U 1 1 62B09FCF
P 6675 3975
F 0 "#PWR06" H 6675 3725 50  0001 C CNN
F 1 "GND" H 6680 3802 50  0000 C CNN
F 2 "" H 6675 3975 50  0001 C CNN
F 3 "" H 6675 3975 50  0001 C CNN
	1    6675 3975
	0    1    1    0   
$EndComp
$Comp
L power:GND #PWR011
U 1 1 62B0A94A
P 5675 4825
F 0 "#PWR011" H 5675 4575 50  0001 C CNN
F 1 "GND" H 5680 4652 50  0000 C CNN
F 2 "" H 5675 4825 50  0001 C CNN
F 3 "" H 5675 4825 50  0001 C CNN
	1    5675 4825
	1    0    0    -1  
$EndComp
$Comp
L power:GND #PWR04
U 1 1 62B0AE7C
P 5375 3475
F 0 "#PWR04" H 5375 3225 50  0001 C CNN
F 1 "GND" H 5380 3302 50  0000 C CNN
F 2 "" H 5375 3475 50  0001 C CNN
F 3 "" H 5375 3475 50  0001 C CNN
	1    5375 3475
	0    1    1    0   
$EndComp
Wire Wire Line
	6725 3975 6675 3975
Wire Wire Line
	5675 4825 5675 4775
$Comp
L Connector_Generic:Conn_01x03 J19
U 1 1 62B0CF3F
P 7725 4050
F 0 "J19" H 7805 4092 50  0000 L CNN
F 1 "I2C" H 7805 4001 50  0000 L CNN
F 2 "Connector:FanPinHeader_1x03_P2.54mm_Vertical" H 7725 4050 50  0001 C CNN
F 3 "~" H 7725 4050 50  0001 C CNN
	1    7725 4050
	1    0    0    -1  
$EndComp
$Comp
L Device:R_Small R3
U 1 1 62B0E2CD
P 7475 3725
F 0 "R3" H 7534 3771 50  0000 L CNN
F 1 "2.2k" H 7534 3680 50  0000 L CNN
F 2 "Resistor_SMD:R_0805_2012Metric_Pad1.20x1.40mm_HandSolder" H 7475 3725 50  0001 C CNN
F 3 "~" H 7475 3725 50  0001 C CNN
	1    7475 3725
	1    0    0    -1  
$EndComp
$Comp
L Device:R_Small R2
U 1 1 62B0E5C7
P 7175 3725
F 0 "R2" H 7234 3771 50  0000 L CNN
F 1 "2.2k" H 7234 3680 50  0000 L CNN
F 2 "Resistor_SMD:R_0805_2012Metric_Pad1.20x1.40mm_HandSolder" H 7175 3725 50  0001 C CNN
F 3 "~" H 7175 3725 50  0001 C CNN
	1    7175 3725
	1    0    0    -1  
$EndComp
Wire Wire Line
	7475 3825 7475 3950
Wire Wire Line
	7475 3950 7525 3950
Wire Wire Line
	7175 4050 7175 3825
Wire Wire Line
	6275 3975 6475 3975
Wire Wire Line
	6475 3975 6475 4050
Wire Wire Line
	6475 4050 7175 4050
Connection ~ 7175 4050
Wire Wire Line
	6275 4075 7350 4075
Wire Wire Line
	7350 4075 7350 3950
Wire Wire Line
	7350 3950 7475 3950
Connection ~ 7475 3950
Wire Wire Line
	7475 3625 7175 3625
Wire Wire Line
	6725 3625 6725 3775
Connection ~ 7175 3625
Wire Wire Line
	7175 3625 6725 3625
$Comp
L power:GND #PWR08
U 1 1 62B1280C
P 7525 4200
F 0 "#PWR08" H 7525 3950 50  0001 C CNN
F 1 "GND" H 7530 4027 50  0000 C CNN
F 2 "" H 7525 4200 50  0001 C CNN
F 3 "" H 7525 4200 50  0001 C CNN
	1    7525 4200
	1    0    0    -1  
$EndComp
Wire Wire Line
	7525 4200 7525 4150
$Comp
L Device:R_POT_Small RV1
U 1 1 62B13022
P 7750 4550
F 0 "RV1" H 7690 4596 50  0000 R CNN
F 1 "R_POT" H 7690 4505 50  0000 R CNN
F 2 "Potentiometer_THT:Potentiometer_ACP_CA14V-15_Vertical" H 7750 4550 50  0001 C CNN
F 3 "~" H 7750 4550 50  0001 C CNN
	1    7750 4550
	-1   0    0    -1  
$EndComp
Wire Wire Line
	7275 4550 7650 4550
$Comp
L power:GND #PWR010
U 1 1 62B15634
P 7750 4700
F 0 "#PWR010" H 7750 4450 50  0001 C CNN
F 1 "GND" H 7755 4527 50  0000 C CNN
F 2 "" H 7750 4700 50  0001 C CNN
F 3 "" H 7750 4700 50  0001 C CNN
	1    7750 4700
	1    0    0    -1  
$EndComp
Wire Wire Line
	7750 4700 7750 4675
Wire Wire Line
	7750 4450 7975 4450
Wire Wire Line
	7975 4450 7975 3625
Wire Wire Line
	7975 3625 7475 3625
Connection ~ 7475 3625
$Comp
L Connector_Generic:Conn_01x02 J21
U 1 1 62B19B88
P 8350 4450
F 0 "J21" H 8430 4442 50  0000 L CNN
F 1 "power" H 8430 4351 50  0000 L CNN
F 2 "TerminalBlock_Phoenix:TerminalBlock_Phoenix_MKDS-1,5-2_1x02_P5.00mm_Horizontal" H 8350 4450 50  0001 C CNN
F 3 "~" H 8350 4450 50  0001 C CNN
	1    8350 4450
	1    0    0    -1  
$EndComp
Wire Wire Line
	8150 4450 7975 4450
Connection ~ 7975 4450
Wire Wire Line
	7750 4675 8150 4675
Wire Wire Line
	8150 4675 8150 4550
Connection ~ 7750 4675
Wire Wire Line
	7750 4675 7750 4650
Wire Wire Line
	6375 4375 6275 4375
$Comp
L Device:C_Small C3
U 1 1 62B1DF83
P 5550 3475
F 0 "C3" V 5321 3475 50  0000 C CNN
F 1 "0.1u" V 5412 3475 50  0000 C CNN
F 2 "Capacitor_SMD:C_0805_2012Metric_Pad1.18x1.45mm_HandSolder" H 5550 3475 50  0001 C CNN
F 3 "~" H 5550 3475 50  0001 C CNN
	1    5550 3475
	0    1    1    0   
$EndComp
Wire Wire Line
	5675 3575 5675 3475
Wire Wire Line
	5675 3475 5650 3475
Wire Wire Line
	5450 3475 5375 3475
$Comp
L Regulator_Linear:ADP7142AUJZ-5.0 U1
U 1 1 62B1FC56
P 4375 3250
F 0 "U1" H 4375 3617 50  0000 C CNN
F 1 "ADP7142AUJZ-5.0" H 4375 3526 50  0000 C CNN
F 2 "Package_SO:SC-74-6_1.5x2.9mm_P0.95mm" H 4375 2850 50  0001 C CIN
F 3 "https://www.analog.com/media/en/technical-documentation/data-sheets/ADP7142.pdf" H 4375 2750 50  0001 C CNN
	1    4375 3250
	1    0    0    -1  
$EndComp
Wire Wire Line
	3975 3350 3900 3350
Wire Wire Line
	3900 3350 3900 3150
Wire Wire Line
	3900 3150 3975 3150
$Comp
L power:GND #PWR03
U 1 1 62B231B6
P 3675 3475
F 0 "#PWR03" H 3675 3225 50  0001 C CNN
F 1 "GND" H 3680 3302 50  0000 C CNN
F 2 "" H 3675 3475 50  0001 C CNN
F 3 "" H 3675 3475 50  0001 C CNN
	1    3675 3475
	1    0    0    -1  
$EndComp
$Comp
L Device:C_Small C2
U 1 1 62B231BC
P 3675 3300
F 0 "C2" H 3767 3346 50  0000 L CNN
F 1 "1u" H 3767 3255 50  0000 L CNN
F 2 "Capacitor_SMD:C_0805_2012Metric_Pad1.18x1.45mm_HandSolder" H 3675 3300 50  0001 C CNN
F 3 "~" H 3675 3300 50  0001 C CNN
	1    3675 3300
	1    0    0    -1  
$EndComp
Wire Wire Line
	3675 3400 3675 3475
$Comp
L power:GND #PWR02
U 1 1 62B242AC
P 4975 3425
F 0 "#PWR02" H 4975 3175 50  0001 C CNN
F 1 "GND" H 4980 3252 50  0000 C CNN
F 2 "" H 4975 3425 50  0001 C CNN
F 3 "" H 4975 3425 50  0001 C CNN
	1    4975 3425
	1    0    0    -1  
$EndComp
$Comp
L Device:C_Small C1
U 1 1 62B242B2
P 4975 3250
F 0 "C1" H 5067 3296 50  0000 L CNN
F 1 "1u" H 5067 3205 50  0000 L CNN
F 2 "Capacitor_SMD:C_0805_2012Metric_Pad1.18x1.45mm_HandSolder" H 4975 3250 50  0001 C CNN
F 3 "~" H 4975 3250 50  0001 C CNN
	1    4975 3250
	1    0    0    -1  
$EndComp
Wire Wire Line
	4975 3350 4975 3425
Wire Wire Line
	4775 3150 4975 3150
Wire Wire Line
	4975 3150 5675 3150
Wire Wire Line
	5675 3150 5675 3475
Connection ~ 4975 3150
Connection ~ 5675 3475
Wire Wire Line
	3900 3150 3675 3150
Wire Wire Line
	3675 3150 3675 3200
Connection ~ 3900 3150
$Comp
L power:GND #PWR05
U 1 1 62B27BAF
P 4375 3625
F 0 "#PWR05" H 4375 3375 50  0001 C CNN
F 1 "GND" H 4380 3452 50  0000 C CNN
F 2 "" H 4375 3625 50  0001 C CNN
F 3 "" H 4375 3625 50  0001 C CNN
	1    4375 3625
	1    0    0    -1  
$EndComp
Wire Wire Line
	4375 3550 4375 3625
Wire Wire Line
	5675 3475 6725 3475
Wire Wire Line
	6725 3475 6725 3625
Connection ~ 6725 3625
$Comp
L Connector_Generic:Conn_01x01 J13
U 1 1 62B346EE
P 2175 3225
F 0 "J13" H 2093 3442 50  0000 C CNN
F 1 "P+" H 2093 3351 50  0000 C CNN
F 2 "Connector_Pin:Pin_D1.3mm_L11.0mm_LooseFit" H 2175 3225 50  0001 C CNN
F 3 "~" H 2175 3225 50  0001 C CNN
	1    2175 3225
	-1   0    0    -1  
$EndComp
$Comp
L Connector_Generic:Conn_01x01 J14
U 1 1 62B346F4
P 2175 3400
F 0 "J14" H 2093 3617 50  0000 C CNN
F 1 "P+" H 2093 3526 50  0000 C CNN
F 2 "Connector_Pin:Pin_D1.3mm_L11.0mm_LooseFit" H 2175 3400 50  0001 C CNN
F 3 "~" H 2175 3400 50  0001 C CNN
	1    2175 3400
	-1   0    0    -1  
$EndComp
$Comp
L Connector_Generic:Conn_01x01 J15
U 1 1 62B3640D
P 2175 3600
F 0 "J15" H 2093 3817 50  0000 C CNN
F 1 "P+" H 2093 3726 50  0000 C CNN
F 2 "Connector_Pin:Pin_D1.3mm_L11.0mm_LooseFit" H 2175 3600 50  0001 C CNN
F 3 "~" H 2175 3600 50  0001 C CNN
	1    2175 3600
	-1   0    0    -1  
$EndComp
$Comp
L Connector_Generic:Conn_01x01 J16
U 1 1 62B3BD02
P 1425 3700
F 0 "J16" H 1343 3917 50  0000 C CNN
F 1 "GND" H 1343 3826 50  0000 C CNN
F 2 "Connector_Pin:Pin_D1.3mm_L11.0mm_LooseFit" H 1425 3700 50  0001 C CNN
F 3 "~" H 1425 3700 50  0001 C CNN
	1    1425 3700
	-1   0    0    -1  
$EndComp
$Comp
L Connector_Generic:Conn_01x01 J18
U 1 1 62B3BD08
P 1425 3900
F 0 "J18" H 1343 4117 50  0000 C CNN
F 1 "GND" H 1343 4026 50  0000 C CNN
F 2 "Connector_Pin:Pin_D1.3mm_L11.0mm_LooseFit" H 1425 3900 50  0001 C CNN
F 3 "~" H 1425 3900 50  0001 C CNN
	1    1425 3900
	-1   0    0    -1  
$EndComp
$Comp
L Connector_Generic:Conn_01x01 J20
U 1 1 62B3BD0E
P 1425 4075
F 0 "J20" H 1343 4292 50  0000 C CNN
F 1 "GND" H 1343 4201 50  0000 C CNN
F 2 "Connector_Pin:Pin_D1.3mm_L11.0mm_LooseFit" H 1425 4075 50  0001 C CNN
F 3 "~" H 1425 4075 50  0001 C CNN
	1    1425 4075
	-1   0    0    -1  
$EndComp
Wire Wire Line
	1625 3700 1625 3900
Connection ~ 1625 3900
Wire Wire Line
	1625 3900 1625 4075
$Comp
L power:GND #PWR07
U 1 1 62B47511
P 1625 4200
F 0 "#PWR07" H 1625 3950 50  0001 C CNN
F 1 "GND" H 1630 4027 50  0000 C CNN
F 2 "" H 1625 4200 50  0001 C CNN
F 3 "" H 1625 4200 50  0001 C CNN
	1    1625 4200
	1    0    0    -1  
$EndComp
Wire Wire Line
	1625 4075 1625 4200
Connection ~ 1625 4075
Connection ~ 2375 3400
Wire Wire Line
	2375 3400 2375 3225
Wire Wire Line
	2375 3600 2375 3400
Wire Wire Line
	2375 3225 2375 3150
Wire Wire Line
	2375 3150 3675 3150
Connection ~ 2375 3225
Connection ~ 3675 3150
$Comp
L Device:LED_Small D1
U 1 1 62B5B045
P 6325 3150
F 0 "D1" H 6325 2943 50  0000 C CNN
F 1 "LED_Small" H 6325 3034 50  0000 C CNN
F 2 "LED_THT:LED_D5.0mm" V 6325 3150 50  0001 C CNN
F 3 "~" V 6325 3150 50  0001 C CNN
	1    6325 3150
	-1   0    0    1   
$EndComp
$Comp
L Device:R_Small R1
U 1 1 62B5CD6B
P 5950 3150
F 0 "R1" H 6009 3196 50  0000 L CNN
F 1 "2.2k" H 6009 3105 50  0000 L CNN
F 2 "Resistor_SMD:R_0805_2012Metric_Pad1.20x1.40mm_HandSolder" H 5950 3150 50  0001 C CNN
F 3 "~" H 5950 3150 50  0001 C CNN
	1    5950 3150
	0    -1   -1   0   
$EndComp
Wire Wire Line
	6225 3150 6050 3150
Wire Wire Line
	5850 3150 5675 3150
Connection ~ 5675 3150
$Comp
L power:GND #PWR01
U 1 1 62B66556
P 6525 3250
F 0 "#PWR01" H 6525 3000 50  0001 C CNN
F 1 "GND" H 6530 3077 50  0000 C CNN
F 2 "" H 6525 3250 50  0001 C CNN
F 3 "" H 6525 3250 50  0001 C CNN
	1    6525 3250
	1    0    0    -1  
$EndComp
Wire Wire Line
	6525 3250 6525 3150
Wire Wire Line
	6525 3150 6425 3150
$Comp
L LED:WS2812B D2
U 1 1 62B6B180
P 9200 4475
F 0 "D2" H 9544 4521 50  0000 L CNN
F 1 "WS2812B" H 9544 4430 50  0000 L CNN
F 2 "LED_SMD:LED_WS2812B_PLCC4_5.0x5.0mm_P3.2mm" H 9250 4175 50  0001 L TNN
F 3 "https://cdn-shop.adafruit.com/datasheets/WS2812B.pdf" H 9300 4100 50  0001 L TNN
	1    9200 4475
	1    0    0    -1  
$EndComp
Wire Wire Line
	7200 5150 7200 5100
$Comp
L Device:R_Small R5
U 1 1 62B81714
P 8025 4950
F 0 "R5" V 7829 4950 50  0000 C CNN
F 1 "470" V 7920 4950 50  0000 C CNN
F 2 "Resistor_SMD:R_0805_2012Metric_Pad1.20x1.40mm_HandSolder" H 8025 4950 50  0001 C CNN
F 3 "~" H 8025 4950 50  0001 C CNN
	1    8025 4950
	0    1    1    0   
$EndComp
Wire Wire Line
	7925 4950 7450 4950
Wire Wire Line
	8125 4950 8775 4950
Wire Wire Line
	8775 4950 8775 4475
Wire Wire Line
	8775 4475 8900 4475
$Comp
L power:GND #PWR09
U 1 1 62B898D8
P 10050 4625
F 0 "#PWR09" H 10050 4375 50  0001 C CNN
F 1 "GND" H 10055 4452 50  0000 C CNN
F 2 "" H 10050 4625 50  0001 C CNN
F 3 "" H 10050 4625 50  0001 C CNN
	1    10050 4625
	1    0    0    -1  
$EndComp
$Comp
L Device:C_Small C4
U 1 1 62B898DE
P 10050 4450
F 0 "C4" H 10142 4496 50  0000 L CNN
F 1 "1u" H 10142 4405 50  0000 L CNN
F 2 "Capacitor_SMD:C_0805_2012Metric_Pad1.18x1.45mm_HandSolder" H 10050 4450 50  0001 C CNN
F 3 "~" H 10050 4450 50  0001 C CNN
	1    10050 4450
	1    0    0    -1  
$EndComp
Wire Wire Line
	10050 4550 10050 4625
Wire Wire Line
	10050 4175 9200 4175
Wire Wire Line
	10050 4175 10050 4350
$Comp
L power:GND #PWR012
U 1 1 62B8D9A3
P 9200 4825
F 0 "#PWR012" H 9200 4575 50  0001 C CNN
F 1 "GND" H 9205 4652 50  0000 C CNN
F 2 "" H 9200 4825 50  0001 C CNN
F 3 "" H 9200 4825 50  0001 C CNN
	1    9200 4825
	1    0    0    -1  
$EndComp
Wire Wire Line
	9200 4825 9200 4775
Connection ~ 7975 3625
Wire Wire Line
	9200 4175 9200 3625
Connection ~ 9200 4175
Wire Wire Line
	7200 4600 7450 4600
Wire Wire Line
	7450 4600 7450 4950
Connection ~ 7350 3950
Wire Wire Line
	7975 3625 9200 3625
$Comp
L Jumper:Jumper_3_Bridged12 JP2
U 1 1 62B74E2A
P 7200 4850
F 0 "JP2" H 7200 5054 50  0000 C CNN
F 1 "jumper" H 7200 4963 50  0000 C CNN
F 2 "Jumper:SolderJumper-3_P2.0mm_Open_TrianglePad1.0x1.5mm" H 7200 4850 50  0001 C CNN
F 3 "~" H 7200 4850 50  0001 C CNN
	1    7200 4850
	0    1    1    0   
$EndComp
$Comp
L Jumper:Jumper_3_Bridged12 JP1
U 1 1 62AFD281
P 6825 4425
F 0 "JP1" H 6825 4629 50  0000 C CNN
F 1 "jumper" H 6825 4538 50  0000 C CNN
F 2 "Jumper:SolderJumper-3_P2.0mm_Open_TrianglePad1.0x1.5mm" H 6825 4425 50  0001 C CNN
F 3 "~" H 6825 4425 50  0001 C CNN
	1    6825 4425
	0    1    1    0   
$EndComp
Wire Wire Line
	7275 4550 7275 4175
Wire Wire Line
	7275 4175 6825 4175
Wire Wire Line
	6675 4425 6675 4175
Wire Wire Line
	6675 4175 6275 4175
Wire Wire Line
	6275 4275 6550 4275
Wire Wire Line
	6550 4275 6550 4850
Wire Wire Line
	6550 4850 7050 4850
$Comp
L Connector_Generic:Conn_01x03 J22
U 1 1 62B20E42
P 7100 5350
F 0 "J22" H 7180 5392 50  0000 L CNN
F 1 "ext" H 7180 5301 50  0000 L CNN
F 2 "Connector:FanPinHeader_1x03_P2.54mm_Vertical" H 7100 5350 50  0001 C CNN
F 3 "~" H 7100 5350 50  0001 C CNN
	1    7100 5350
	0    1    1    0   
$EndComp
Wire Wire Line
	7000 5150 6375 5150
Wire Wire Line
	6375 5150 6375 4375
Wire Wire Line
	7100 5150 7100 5000
Wire Wire Line
	7100 5000 6825 5000
Wire Wire Line
	6825 5000 6825 4675
$Comp
L Connector_Generic:Conn_01x02 J6
U 1 1 62B4FBE8
P 7675 2275
F 0 "J6" H 7755 2267 50  0000 L CNN
F 1 "inter" H 7755 2176 50  0000 L CNN
F 2 "Connector_PinHeader_2.54mm:PinHeader_1x02_P2.54mm_Vertical" H 7675 2275 50  0001 C CNN
F 3 "~" H 7675 2275 50  0001 C CNN
	1    7675 2275
	1    0    0    -1  
$EndComp
$Comp
L Connector_Generic:Conn_01x02 J5
U 1 1 62B51761
P 7675 2025
F 0 "J5" H 7755 2017 50  0000 L CNN
F 1 "inter" H 7755 1926 50  0000 L CNN
F 2 "Connector_PinHeader_2.54mm:PinHeader_1x02_P2.54mm_Vertical" H 7675 2025 50  0001 C CNN
F 3 "~" H 7675 2025 50  0001 C CNN
	1    7675 2025
	1    0    0    -1  
$EndComp
$Comp
L Connector_Generic:Conn_01x02 J4
U 1 1 62B53D44
P 7675 1775
F 0 "J4" H 7755 1767 50  0000 L CNN
F 1 "inter" H 7755 1676 50  0000 L CNN
F 2 "Connector_PinHeader_2.54mm:PinHeader_1x02_P2.54mm_Vertical" H 7675 1775 50  0001 C CNN
F 3 "~" H 7675 1775 50  0001 C CNN
	1    7675 1775
	1    0    0    -1  
$EndComp
$Comp
L Connector_Generic:Conn_01x02 J3
U 1 1 62B56275
P 7675 1525
F 0 "J3" H 7755 1517 50  0000 L CNN
F 1 "inter" H 7755 1426 50  0000 L CNN
F 2 "Connector_PinHeader_2.54mm:PinHeader_1x02_P2.54mm_Vertical" H 7675 1525 50  0001 C CNN
F 3 "~" H 7675 1525 50  0001 C CNN
	1    7675 1525
	1    0    0    -1  
$EndComp
$Comp
L Connector_Generic:Conn_01x02 J2
U 1 1 62B5881B
P 7675 1275
F 0 "J2" H 7755 1267 50  0000 L CNN
F 1 "inter" H 7755 1176 50  0000 L CNN
F 2 "Connector_PinHeader_2.54mm:PinHeader_1x02_P2.54mm_Vertical" H 7675 1275 50  0001 C CNN
F 3 "~" H 7675 1275 50  0001 C CNN
	1    7675 1275
	1    0    0    -1  
$EndComp
$Comp
L Connector_Generic:Conn_01x02 J1
U 1 1 62B5AE27
P 7675 1025
F 0 "J1" H 7755 1017 50  0000 L CNN
F 1 "inter" H 7755 926 50  0000 L CNN
F 2 "Connector_PinHeader_2.54mm:PinHeader_1x02_P2.54mm_Vertical" H 7675 1025 50  0001 C CNN
F 3 "~" H 7675 1025 50  0001 C CNN
	1    7675 1025
	1    0    0    -1  
$EndComp
Wire Wire Line
	7175 4050 7250 4050
Wire Wire Line
	7350 1125 7475 1125
Wire Wire Line
	7350 1125 7350 1375
Wire Wire Line
	7475 1375 7350 1375
Connection ~ 7350 1375
Wire Wire Line
	7350 1375 7350 1625
Wire Wire Line
	7475 1625 7350 1625
Connection ~ 7350 1625
Wire Wire Line
	7350 1625 7350 1875
Wire Wire Line
	7475 1875 7350 1875
Connection ~ 7350 1875
Wire Wire Line
	7350 1875 7350 2125
Wire Wire Line
	7475 2125 7350 2125
Connection ~ 7350 2125
Wire Wire Line
	7350 2125 7350 2375
Wire Wire Line
	7475 2375 7350 2375
Connection ~ 7350 2375
Wire Wire Line
	7350 2375 7350 3950
Wire Wire Line
	7250 1025 7475 1025
Wire Wire Line
	7250 1025 7250 1275
Connection ~ 7250 4050
Wire Wire Line
	7250 4050 7525 4050
Wire Wire Line
	7475 1275 7250 1275
Connection ~ 7250 1275
Wire Wire Line
	7250 1275 7250 1525
Wire Wire Line
	7475 1525 7250 1525
Connection ~ 7250 1525
Wire Wire Line
	7250 1525 7250 1775
Wire Wire Line
	7475 1775 7250 1775
Connection ~ 7250 1775
Wire Wire Line
	7250 1775 7250 2025
Wire Wire Line
	7475 2025 7250 2025
Connection ~ 7250 2025
Wire Wire Line
	7250 2025 7250 2275
Wire Wire Line
	7475 2275 7250 2275
Connection ~ 7250 2275
Wire Wire Line
	7250 2275 7250 4050
$EndSCHEMATC
